Describing the data
…
Code

med_clean %>% 
  filter(species %in% c(groupers, diplodus, herbivores)) %>% 
  mutate(sp_group = ifelse(species %in% groupers, "Groupers",
                           ifelse(species %in% diplodus, "Seabreams", "Herbivores"))) %>% 
  filter(!is.na(depth)) %>% 
  group_by(site) %>% distinct(trans) %>% 
  summarise(total_transects = n())

# A tibble: 203 x 2
   site                  total_transects
   <chr>                           <int>
 1 achziv                            103
 2 adrasan                            18
 3 alonissos                          18
 4 assecret1210191mlhb_a               1
 5 assecret1210191mlhb_b               1
 6 assecret1210191scso_a               1
 7 assecret1210191scso_b               1
 8 assecret1210191scso_c               1
 9 assecret1210191smss_a               1
10 assecret1210191smss_b               1
# ... with 193 more rows
…
